{
  "github-oauth": {
    "github.com": "f31cc12720a1683f234e61e452429279f6f82033"
  },
  "http-basic": {
    "repo.magento.com": {
      "username": "bec30fa05faeca1696c799c35b197cab",
      "password": "53ec13c654777824e990e2a1539dc717"
    }
  }
}